// let result = new kktResp(203,{message:req.body});
        // return res.status(203).send(result);
        // const { userId, password, tenantId } = req.body;
        // console.log(`MASUK NIH ${JSON.stringify(req.body)}`);
        // const users = await pool
        //     .select("ku.userid as userId", "ku.fullname as fullName", "ku.tenantid as tenantId","kt.tenant", "ku.userlevel as userLevel", "ku.roleid  as roleId", "kr.rolename  as roleName", "ku.aclid as aclId", "ku.unitid as unitId", "ku.branchid as branchId", "ku.status", "ku.created_at")
        //     .from("kkt_users as ku")
        //     .innerJoin("kkt_m_roles as kr", "ku.roleid", "kr.roleid")
        //     .leftJoin("kkt_m_tenants as kt", "ku.tenantid", "kt.tenantid")
        //     .where({"ku.userid":userId, "ku.password":password})
        //     .orderBy("ku.created_at", "ASC");
       
        // if (users.length > 0) {
        //     let user = users[0];
        //     let nowDate = new Date();
        //     let infoAcc = user;
        //     let tmpdatetime = moment(new Date()).format(format2);
        //     let tmpref = await between(2000, 9000);
        //     let AccInfo = new Snap_Uinfo(user.userId, infoAcc);
        //     let refNo = tmpdatetime + '' + tmpref;
        //     let expDateToken = addMinutes(nowDate, 30);
        //     let pretoken = { refno: refNo, expdate: expDateToken }
        //     let token = await jwttools.encryptdata(pretoken);
        //     let tokenInfo = new Snap_Ati(token, moment(expDateToken).toISOString(), null, null, 1);
        //     let result = new snapResp(2001001, `user found ${users.length} records`, refNo, null, null, tokenInfo, null, null, null, null, null, AccInfo);
        //     //******************** HTTPONLY COOKIES */
        //     let cookieResult = await resCookieSign.responseCookie200(res,tokenInfo.accessToken,result, req.body);    
        //     //************************************************************* */
        //     if(cookieResult) {
        //         return res.status(200).send(result);
        //     } else {
        //         let result = new snapResp(2001006, `Session login Problem`, null, null, null, null, null, null, null, null, null, null);
        //         return res.status(401).send(result);
        //     }
            
        // } else {
        //     let result = new snapResp(2001005, `No user data found!`, null, null, null, null, null, null, null, null, null, null);
        //     return res.status(203).send(result);
        // }


         // let result = new snapResp(2001005, "Not authorized user!", null, null, null, null, null, null, null, null, null, null);